{
  "rules": {
    "adminUsers": {
      ".write": false,
      ".read": false
    },
    "approvedSellers": {
      ".write": false,
      ".read": false
    },
    "blockedUsers": {
      ".write": false,
      ".read": false
    },
    "buyerProfiles": {
      "$buyerProfile": {
        ".read": "auth !== null && !root.child('blockedUsers').hasChild(auth.uid)",
        ".write": "$buyerProfile === auth.uid && !root.child('blockedUsers').hasChild(auth.uid) || root.child('adminUsers').hasChild(auth.uid)",
        ".validate": "!newData.hasChild('hasMadeApprovedRequest')"
      }
    },
    "categories": {
      ".read": true,
      ".write": false
    },
    "chats": {
      "$chat": {
        ".read": "auth !== null && root.child('chats/'+$chat+'/members').hasChild(auth.uid) ",
        ".write": "auth !== null && (root.child('offers').child(newData.child('offer').val()).child('sellerProfile').val() == auth.uid || root.child('offers').child(newData.child('offer').val()).child('buyerProfile').val() == auth.uid)",
        ".validate": "newData.child('members').hasChild(auth.uid)"
      }
    },
    "chatMessages": {
      "$chatMessage": {
        ".write": "auth !== null && root.child('chats/'+newData.child('chat').val()+'/members').hasChild(auth.uid)",
        ".read": "auth !== null && root.child('chats/'+data.child('chat').val()+'/members').hasChild(auth.uid)",
        ".validate": "!data.exists() && newData.child('sender').val() == auth.uid"
      }
    },
    "feed": {
      ".read": true,
      ".write": false
    },
    "images": {
      "$image": {
        ".read": "auth !== null && !root.child('blockedUsers').hasChild(auth.uid)",
        ".write": "auth !== null && !root.child('blockedUsers').hasChild(auth.uid)",
        ".validate": "!data.child('storagePath').exists()"
      }
    },
    "offerRequests": {
      ".indexOn": "status",
      ".read": true,
      "$offerRequest": {
        ".read": "data.child('buyerProfile').val()  === auth.uid || root.child('approvedSellers').hasChild(auth.uid)",
        ".write": "(data.exists() && data.child('buyerProfile').val() == auth.uid) || (!data.exists() && newData.child('buyerProfile').val()  === auth.uid ||  root.child('adminUsers').hasChild(auth.uid))",
        ".validate": "newData.child('approved').val() == data.child('approved').val()",
        "prepaid": {
          ".write": false
        }
      }
    },
    "openOfferRequests": {
      ".write": false,
      ".read": "root.child('approvedSellers').hasChild(auth.uid)"
    },
    "offers": {
      ".indexOn": ["sellerProfile", "status"],
      "$offer": {
        ".read": "data.child('sellerProfile').val() == auth.uid || root.child('offerRequests').child(data.child('offerRequest').val()).child('buyerProfile').val() == auth.uid",
        ".write": "newData.child('sellerProfile').val() == auth.uid || root.child('offerRequests').child(newData.child('offerRequest').val()).child('buyerProfile').val() == auth.uid",
        ".validate": "(!data.child('price').exists() || newData.child('price').val() == data.child('price').val()) && (!data.child('totalPrice').exists() || newData.child('totalPrice').val() == data.child('totalPrice').val()) && (!data.child('duration').exists() || newData.child('duration').val() == data.child('duration').val() || data.child('buyerProfile').val() == auth.uid) && (!data.child('totalDuration').exists() || newData.child('totalDuration').val() == data.child('totalDuration').val() || data.child('buyerProfile').val() == auth.uid)"
      }
    },
    "paymentMethods": {
      ".read": true,
      ".write": false
    },
    "reviews": {
      "$review": {
        ".read": "auth !== null && !root.child('blockedUsers').hasChild(auth.uid)",
        ".write": "!data.exists() && root.child('offerRequests').child(newData.child('offerRequestId').val()).child('buyerProfile').val() == auth.uid",
        ".validate": "root.child('offerRequests').child(newData.child('offerRequestId').val()).child('status').val() == 'completed' && root.child('offerRequests').child(newData.child('offerRequestId').val()).child('offers').hasChild(newData.child('offerId').val()) && root.child('offers').child(newData.child('offerId').val()).child('sellerProfile').val() == newData.child('sellerProfile').val()"
      }
    },
    "sellerProfiles": {
      "$sellerProfile": {
        ".read": "auth !== null && !root.child('blockedUsers').hasChild(auth.uid)",
        ".write": "$sellerProfile === auth.uid && !root.child('blockedUsers').hasChild(auth.uid)",
        ".validate": "!newData.hasChild('reviews')"
      }
    },
    "stilaus": {
      "$stilaus": {
        ".read": "root.child('adminUsers').hasChild(auth.uid)",
        ".write": "root.child('adminUsers').hasChild(auth.uid)"
      }
    },
    "transactions": {
      "$transaction": {
        ".read": "root.child('transactions/'+$transaction+'/buyerInformation/buyerId').val() === auth.uid",
        ".write": "root.child('adminUsers').hasChild(auth.uid)"
      }
    },
    "users": {
      ".indexOn": ["firstName", "lastName", "name", "email"],
      ".read": "auth !== null && root.child('adminUsers').hasChild(auth.uid)",
      ".write": "auth !== null && root.child('adminUsers').hasChild(auth.uid)",
      "$user": {
        ".read": "(auth !== null && $user == auth.uid && !root.child('blockedUsers').hasChild(auth.uid)) || root.child('adminUsers').hasChild(auth.uid)",
        ".write": "(auth !== null && $user == auth.uid && !root.child('blockedUsers').hasChild(auth.uid)) || root.child('adminUsers').hasChild(auth.uid)",
        "email": {
          ".validate": "newData.val().length < 1 || newData.val() == auth.token.email || root.child('adminUsers').hasChild(auth.uid)"
        },
        "emailVerified": {
          ".validate": "newData.val() == auth.token.email_verified"
        },
        "name": {
          ".validate": "newData.val() == auth.token.name || root.child('adminUsers').hasChild(auth.uid)"
        },
        "phoneVerified": {
          ".write": false
        },
        "isAdmin": {
          ".write": false
        },
        "isApprovedSeller": {
          ".write": false
        },
        "netvisorCustomerId": {
          ".write": false
        },
        "netvisorSellerId": {
          ".write": false
        }
      }
    },
    "settings": {
      ".read": true,
      ".write": false
    },
    "confirmationCodes": {
      ".write": false,
      ".read": false
    }
  }
}
