{
  "database": {
    "rules": "database.rules.json"
  },
  "hosting": [
    {
      "target": "staging",
      "public": "public",
      "ignore": ["firebase.json", "**/.*", "**/node_modules/**"],
      "rewrites": [
        {
          "source": "/payment/**",
          "destination": "/payment_overview_page.html"
        },
        {
          "source": "/pay/stripe",
          "destination": "/pay_stripe_dev.html"
        },
        {
          "source": "/success/stripe",
          "destination": "/stripe_success.html"
        },
        {
          "source": "/cancel/stripe",
          "destination": "/stripe_cancelled.html"
        },
        {
          "source": "/terms/fi",
          "destination": "/terms_fi.html"
        },
        {
          "source": "/terms/**",
          "destination": "/terms_en.html"
        },
        {
          "source": "/stripe/session/get",
          "function": "httpsTransactionsStripeSession-get"
        },
        {
          "source": "/stripe/session/getPrepay",
          "function": "httpsTransactionsStripeSession-getPrepay"
        },
        {
          "source": "/stripe/success-web-hook",
          "function": "httpsTransactionsCallbacksStripe-successWebHook"
        },
        {
          "source": "/netvisor/new-order",
          "function": "httpsNetvisorStilaus-newOrder"
        },
        {
          "source": "/new-netvisor/users/update",
          "function": "netvisorCustomerCron-https"
        },
        {
          "source": "/new-netvisor/payment/update",
          "function": "netvisorPaymentCron-https"
        },
        {
          "source": "/new-netvisor/purchase-invoice/update",
          "function": "netvisorPurchaseInvoiceCron-https"
        },
        {
          "source": "/new-netvisor/purchase-order/update",
          "function": "netvisorPurchaseOrderCron-https"
        },
        {
          "source": "/new-netvisor/sales-invoice/update",
          "function": "netvisorSalesInvoiceCron-https"
        },
        {
          "source": "/new-netvisor/sales-order/update",
          "function": "netvisorSalesOrderCron-https"
        },
        {
          "source": "/new-netvisor/service-provider/update",
          "function": "netvisorServiceProviderCron-https"
        },
        {
          "source": "/offerRequest/confirm",
          "function": "httpsVerificationsOfferRequest-confirm"
        },
        {
          "source": "/offerRequest/getDetails",
          "function": "httpsVerificationsOfferRequest-getDetails"
        },
        {
          "source": "/sms/resendVerificationCode",
          "function": "httpsTwilioResendVerificationCode-resend"
        },
        {
          "source": "/sms/checkVerificationCode",
          "function": "httpsTwilioCheckVerificationCode-check"
        }
      ]
    },
    {
      "target": "production",
      "public": "public",
      "ignore": ["firebase.json", "**/.*", "**/node_modules/**"],
      "rewrites": [
        {
          "source": "/payment/**",
          "destination": "/payment_overview_page.html"
        },
        {
          "source": "/pay/stripe",
          "destination": "/pay_stripe_prod.html"
        },
        {
          "source": "/success/stripe",
          "destination": "/stripe_success.html"
        },
        {
          "source": "/cancel/stripe",
          "destination": "/stripe_cancelled.html"
        },
        {
          "source": "/terms/fi",
          "destination": "/terms_fi.html"
        },
        {
          "source": "/terms/**",
          "destination": "/terms_en.html"
        },
        {
          "source": "/stripe/session/get",
          "function": "httpsTransactionsStripeSession-get"
        },
        {
          "source": "/stripe/session/getPrepay",
          "function": "httpsTransactionsStripeSession-getPrepay"
        },
        {
          "source": "/stripe/success-web-hook",
          "function": "httpsTransactionsCallbacksStripe-successWebHook"
        },
        {
          "source": "/netvisor/new-order",
          "function": "httpsNetvisorStilaus-newOrder"
        },
        {
          "source": "/offerRequest/confirm",
          "function": "httpsVerificationsOfferRequest-confirm"
        },
        {
          "source": "/offerRequest/getDetails",
          "function": "httpsVerificationsOfferRequest-getDetails"
        },
        {
          "source": "/sms/resendVerificationCode",
          "function": "httpsTwilioResendVerificationCode-resend"
        },
        {
          "source": "/sms/checkVerificationCode",
          "function": "httpsTwilioCheckVerificationCode-check"
        }
      ]
    }
  ]
}
